\relax 
\providecommand\hyper@newdestlabel[2]{}
\providecommand\BKM@entry[2]{}
\providecommand\HyperFirstAtBeginDocument{\AtBeginDocument}
\HyperFirstAtBeginDocument{\ifx\hyper@anchor\@undefined
\global\let\oldcontentsline\contentsline
\gdef\contentsline#1#2#3#4{\oldcontentsline{#1}{#2}{#3}}
\global\let\oldnewlabel\newlabel
\gdef\newlabel#1#2{\newlabelxx{#1}#2}
\gdef\newlabelxx#1#2#3#4#5#6{\oldnewlabel{#1}{{#2}{#3}}}
\AtEndDocument{\ifx\hyper@anchor\@undefined
\let\contentsline\oldcontentsline
\let\newlabel\oldnewlabel
\fi}
\fi}
\global\let\hyper@last\relax 
\gdef\HyperFirstAtBeginDocument#1{#1}
\providecommand\HyField@AuxAddToFields[1]{}
\providecommand\HyField@AuxAddToCoFields[2]{}
\BKM@entry{id=1,dest={73656374696F6E2E31},srcline={75}}{496E74726F64756374696F6E20616E64204D6F7469766174696F6E73}
\BKM@entry{id=2,dest={73656374696F6E2E32},srcline={83}}{466F75722064696D656E73696F6E616C207370696E20666F616D204246207468656F7279}
\babel@aux{english}{}
\@writefile{toc}{\contentsline {section}{\numberline {1}Introduction and Motivations}{1}{section.1}}
\newlabel{sec:intro}{{1}{1}{Introduction and Motivations}{section.1}{}}
\@writefile{toc}{\contentsline {section}{\numberline {2}Four dimensional spin foam BF theory}{1}{section.2}}
\newlabel{sec:theory}{{2}{1}{Four dimensional spin foam BF theory}{section.2}{}}
\newlabel{eq:partfunct1}{{2}{1}{Four dimensional spin foam BF theory}{equation.2.2}{}}
\citation{Yutsis}
\BKM@entry{id=3,dest={73656374696F6E2E33},srcline={144}}{5468652044656C7461203320616D706C6974756465}
\newlabel{eq:graphical}{{5}{2}{Four dimensional spin foam BF theory}{equation.2.5}{}}
\@writefile{toc}{\contentsline {section}{\numberline {3}The Delta 3 amplitude}{2}{section.3}}
\newlabel{sec:d3theory}{{3}{2}{The Delta 3 amplitude}{section.3}{}}
\BKM@entry{id=4,dest={73656374696F6E2E34},srcline={181}}{5468652044656C746120332067656F6D6574726963616C207265636F6E737472756374696F6E}
\BKM@entry{id=5,dest={73656374696F6E2E35},srcline={190}}{4E756D65726963616C206D6574686F64}
\BKM@entry{id=6,dest={73656374696F6E2E36},srcline={199}}{4E756D65726963616C20616E616C79737973}
\citation{Johansson:2015cca}
\citation{Dona:2018nev}
\@writefile{lof}{\contentsline {figure}{\numberline {1}{\ignorespaces Left: The 2-complex dual to the $\Delta _3$ triangulation. In red the bulk face. Right: The spin foam diagram associated to the $\Delta _3$ transition amplitude. The boxes represent integrals over the $SU(2)$ group, while strand representations labeled by a spin. The empty dots on the boundary are coherent states, described in Section \ref  {}. \relax }}{3}{figure.caption.1}}
\providecommand*\caption@xref[2]{\@setref\relax\@undefined{#1}}
\newlabel{fig:spinfoam}{{1}{3}{Left: The 2-complex dual to the $\Delta _3$ triangulation. In red the bulk face. Right: The spin foam diagram associated to the $\Delta _3$ transition amplitude. The boxes represent integrals over the $SU(2)$ group, while strand representations labeled by a spin. The empty dots on the boundary are coherent states, described in Section \ref {}. \relax }{figure.caption.1}{}}
\newlabel{eq:d3ampl}{{9}{3}{The Delta 3 amplitude}{equation.3.9}{}}
\@writefile{toc}{\contentsline {section}{\numberline {4}The Delta 3 geometrical reconstruction}{3}{section.4}}
\newlabel{sec:d3geometry}{{4}{3}{The Delta 3 geometrical reconstruction}{section.4}{}}
\@writefile{toc}{\contentsline {section}{\numberline {5}Numerical method}{3}{section.5}}
\newlabel{sec:numericalmet}{{5}{3}{Numerical method}{section.5}{}}
\@writefile{toc}{\contentsline {section}{\numberline {6}Numerical analysys}{3}{section.6}}
\newlabel{sec:numericalan}{{6}{3}{Numerical analysys}{section.6}{}}
\@writefile{lof}{\contentsline {figure}{\numberline {2}{\ignorespaces \relax }}{4}{figure.caption.2}}
\newlabel{fig:partial_flat}{{2}{4}{\relax }{figure.caption.2}{}}
\newlabel{eq:flatresult}{{12}{4}{Numerical analysys}{equation.6.12}{}}
\@writefile{lof}{\contentsline {figure}{\numberline {3}{\ignorespaces \relax }}{4}{figure.caption.3}}
\newlabel{fig:partial_curv1}{{3}{4}{\relax }{figure.caption.3}{}}
\newlabel{eq:curvy1result}{{13}{4}{Numerical analysys}{equation.6.13}{}}
\BKM@entry{id=7,dest={73656374696F6E2E37},srcline={296}}{436F6E636C7573696F6E20616E64206F75746C6F6F6B}
\BKM@entry{id=8,dest={73656374696F6E2A2E35},srcline={300}}{417070656E6469636573}
\BKM@entry{id=9,dest={417070656E6469782E612E41},srcline={301}}{44657269766174696F6E206F662033207370696E666F616D20616D706C6974756465}
\@writefile{lof}{\contentsline {figure}{\numberline {4}{\ignorespaces \relax }}{5}{figure.caption.4}}
\newlabel{fig:partial_curv2}{{4}{5}{\relax }{figure.caption.4}{}}
\newlabel{eq:curvy2result}{{14}{5}{Numerical analysys}{equation.6.14}{}}
\@writefile{toc}{\contentsline {section}{\numberline {7}Conclusion and outlook}{6}{section.7}}
\newlabel{sec:concl}{{7}{6}{Conclusion and outlook}{section.7}{}}
\@writefile{toc}{\contentsline {section}{Appendices}{6}{section*.5}}
\@writefile{toc}{\contentsline {section}{\numberline {A}Derivation of $\Delta _3$ spinfoam amplitude}{6}{Appendix.a.A}}
\newlabel{app:derivation}{{A}{6}{Derivation of $\Delta _3$ spinfoam amplitude}{Appendix.a.A}{}}
\bibcite{Engle:2007wy}{1}
\bibcite{Livine:2007vk}{2}
\bibcite{Livine:2007ya}{3}
\bibcite{Freidel:2007py}{4}
\bibcite{Barrett:2009gg}{5}
\bibcite{Barrett:2011xa}{6}
\bibcite{Bianchi:2006uf}{7}
\bibcite{Speziale:2008uw}{8}
\bibcite{Bianchi:2009ri}{9}
\bibcite{Bianchi:2011hp}{10}
\bibcite{Christodoulou:2016vny}{11}
\bibcite{Bianchi:2010zs}{12}
\bibcite{Vidotto:2011qa}{13}
\bibcite{Sarno:2018ses}{14}
\bibcite{Gozzini:2019nbo}{15}
\bibcite{Dona:2019dkf}{16}
\bibcite{Bahr:2014qza}{17}
\bibcite{Bahr:2016hwc}{18}
\bibcite{Bahr:2017klw}{19}
\bibcite{Bahr:2017eyi}{20}
\bibcite{Bahr:2018gwf}{21}
\bibcite{Mielczarek:2018jsh}{22}
\bibcite{Encyclopedia}{23}
\bibcite{Conrady:2008mk}{24}
\bibcite{Bonzom:2009hw}{25}
\bibcite{Hellmann:2013gva}{26}
\bibcite{Dona:2018nev}{27}
\bibcite{PonzanoRegge}{28}
\bibcite{Boosting}{29}
\bibcite{Johansson:2015cca}{30}
\bibcite{codes}{31}
\bibcite{Schulman:1981vu}{32}
\bibcite{Sakurai}{33}
\bibcite{Baez:1999sr}{34}
\bibcite{Perez:2012wv}{35}
\bibcite{Varshalovich}{36}
\bibcite{Barrett:2008wh}{37}
\bibcite{Regge:1961px}{38}
\bibcite{Iwasaki:1995vg}{39}
\bibcite{TV}{40}
\bibcite{Haggard:2009kv}{41}
\bibcite{Dona:2017dvf}{42}
\bibcite{Freidel:2004vi}{43}
\bibcite{Oliveira:2017osu}{44}
\bibcite{Bayle:2016doe}{45}
