%!PS-Adobe-3.0 EPSF-3.0
%%Creator: cairo 1.15.10 (http://cairographics.org)
%%CreationDate: Thu Mar 19 11:28:30 2020
%%Pages: 1
%%DocumentData: Clean7Bit
%%LanguageLevel: 2
%%BoundingBox: 0 1 291 279
%%EndComments
%%BeginProlog
50 dict begin
/q { gsave } bind def
/Q { grestore } bind def
/cm { 6 array astore concat } bind def
/w { setlinewidth } bind def
/J { setlinecap } bind def
/j { setlinejoin } bind def
/M { setmiterlimit } bind def
/d { setdash } bind def
/m { moveto } bind def
/l { lineto } bind def
/c { curveto } bind def
/h { closepath } bind def
/re { exch dup neg 3 1 roll 5 3 roll moveto 0 rlineto
      0 exch rlineto 0 rlineto closepath } bind def
/S { stroke } bind def
/f { fill } bind def
/f* { eofill } bind def
/n { newpath } bind def
/W { clip } bind def
/W* { eoclip } bind def
/BT { } bind def
/ET { } bind def
/BDC { mark 3 1 roll /BDC pdfmark } bind def
/EMC { mark /EMC pdfmark } bind def
/cairo_store_point { /cairo_point_y exch def /cairo_point_x exch def } def
/Tj { show currentpoint cairo_store_point } bind def
/TJ {
  {
    dup
    type /stringtype eq
    { show } { -0.001 mul 0 cairo_font_matrix dtransform rmoveto } ifelse
  } forall
  currentpoint cairo_store_point
} bind def
/cairo_selectfont { cairo_font_matrix aload pop pop pop 0 0 6 array astore
    cairo_font exch selectfont cairo_point_x cairo_point_y moveto } bind def
/Tf { pop /cairo_font exch def /cairo_font_matrix where
      { pop cairo_selectfont } if } bind def
/Td { matrix translate cairo_font_matrix matrix concatmatrix dup
      /cairo_font_matrix exch def dup 4 get exch 5 get cairo_store_point
      /cairo_font where { pop cairo_selectfont } if } bind def
/Tm { 2 copy 8 2 roll 6 array astore /cairo_font_matrix exch def
      cairo_store_point /cairo_font where { pop cairo_selectfont } if } bind def
/g { setgray } bind def
/rg { setrgbcolor } bind def
/d1 { setcachedevice } bind def
/cairo_data_source {
  CairoDataIndex CairoData length lt
    { CairoData CairoDataIndex get /CairoDataIndex CairoDataIndex 1 add def }
    { () } ifelse
} def
/cairo_flush_ascii85_file { cairo_ascii85_file status { cairo_ascii85_file flushfile } if } def
/cairo_image { image cairo_flush_ascii85_file } def
/cairo_imagemask { imagemask cairo_flush_ascii85_file } def
%%EndProlog
%%BeginSetup
%%EndSetup
%%Page: 1 1
%%BeginPageSetup
%%PageBoundingBox: 0 1 291 279
%%EndPageSetup
q 0 1 291 278 rectclip
1 0 0 -1 0 279 cm q
0.878 1 1 rg
105.125 225.273 80 22.234 re f*
0 g
1.2 w
0 J
1 j
[] 0.0 d
10 M 105.125 225.273 80 22.234 re S
0.878 1 1 rg
122.891 33.734 m 109.82 15.746 l 45.098 62.77 l 58.168 80.758 l h
122.891 33.734 m f*
0 g
122.891 33.734 m 109.82 15.746 l 45.098 62.77 l 58.168 80.758 l h
122.891 33.734 m S
0.878 1 1 rg
232.082 80.758 m 245.148 62.77 l 180.43 15.75 l 167.359 33.734 l h
232.082 80.758 m f*
0 g
232.082 80.758 m 245.148 62.77 l 180.43 15.75 l 167.359 33.734 l h
232.082 80.758 m S
0.878 1 1 rg
221.102 199.137 m 242.246 206.008 l 266.969 129.922 l 245.824 123.051 l
 h
221.102 199.137 m f*
0 g
221.102 199.137 m 242.246 206.008 l 266.969 129.922 l 245.824 123.051 l
 h
221.102 199.137 m S
0.878 1 1 rg
44.426 123.051 m 23.281 129.922 l 48.004 206.008 l 69.148 199.137 l h
44.426 123.051 m f*
0 g
44.426 123.051 m 23.281 129.922 l 48.004 206.008 l 69.148 199.137 l h
44.426 123.051 m S
0.8 w
230.988 168.703 m 173.746 144.492 116.504 144.492 59.258 168.703 c S
235.934 153.484 m 175.395 139.422 129.086 105.773 97 52.547 c S
153.125 225.273 m 147.793 163.352 165.48 108.91 206.191 61.949 c S
193.25 52.547 m 161.168 105.773 114.855 139.422 54.316 153.484 c S
137.125 225.273 m 142.461 163.352 124.77 108.91 84.055 61.949 c S
225.988 183.91 m 194.148 179.922 175.195 193.703 169.125 225.262 c S
121.125 225.273 m 115.074 193.719 96.098 179.934 64.203 183.918 c S
49.371 138.27 m 77.508 122.758 84.75 100.457 71.098 71.363 c S
109.965 43.129 m 133.398 65.102 156.812 65.141 180.211 43.242 c S
219.137 71.355 m 205.484 100.438 212.734 122.738 240.883 138.25 c S
1 g
42.891 190.039 m 14.879 199.492 l f*
0 g
42.891 190.039 m 14.879 199.492 l S
1 g
37.062 174.824 m 9.055 184.277 l f*
0 g
37.062 174.824 m 9.055 184.277 l S
1 g
33.055 158.785 m 5.047 168.238 l f*
0 g
33.055 158.785 m 5.047 168.238 l S
1 g
28.41 145.066 m 0.398 154.52 l f*
0 g
28.41 145.066 m 0.398 154.52 l S
1 g
170.148 247.211 m 170.496 276.773 l f*
0 g
170.148 247.211 m 170.496 276.773 l S
1 g
153.875 248.059 m 154.227 277.621 l f*
0 g
153.875 248.059 m 154.227 277.621 l S
1 g
137.383 246.926 m 137.734 276.484 l f*
0 g
137.383 246.926 m 137.734 276.484 l S
1 g
122.902 247.113 m 123.25 276.672 l f*
0 g
122.902 247.113 m 123.25 276.672 l S
1 g
275.363 199.914 m 247.184 190.977 l f*
0 g
275.363 199.914 m 247.184 190.977 l S
1 g
280.492 184.609 m 252.312 175.672 l f*
0 g
280.492 184.609 m 252.312 175.672 l S
1 g
285.914 168.891 m 257.734 159.953 l f*
0 g
285.914 168.891 m 257.734 159.953 l S
1 g
290.484 155.496 m 262.305 146.559 l f*
0 g
290.484 155.496 m 262.305 146.559 l S
1 g
249.621 30.035 m 231.879 53.68 l f*
0 g
249.621 30.035 m 231.879 53.68 l S
1 g
236.676 20.316 m 218.934 43.961 l f*
0 g
236.676 20.316 m 218.934 43.961 l S
1 g
223.539 10.117 m 205.797 33.762 l f*
0 g
223.539 10.117 m 205.797 33.762 l S
1 g
211.664 2.004 m 193.922 25.648 l f*
0 g
211.664 2.004 m 193.922 25.648 l S
1 g
59.926 51.965 m 43.172 27.609 l f*
0 g
59.926 51.965 m 43.172 27.609 l S
1 g
73.105 42.379 m 56.352 18.023 l f*
0 g
73.105 42.379 m 56.352 18.023 l S
1 g
86.562 32.977 m 69.809 8.621 l f*
0 g
86.562 32.977 m 69.809 8.621 l S
1 g
98.488 24.758 m 81.734 0.398 l f*
0 g
98.488 24.758 m 81.734 0.398 l S
Q Q
showpage
%%Trailer
end
%%EOF
